STAT 436 Notes - Tidy Data Example
…
             Kris Sankaran 

Reading, Recording, Rmarkdown

library(tidyverse)
library(skimr)

Let’s work through the example of tidying a WHO dataset. This was discussed in the reading and is good practice in pivoting and deriving new variables.

The raw data, along with a summary from the skimr package, is shown below (notice the small multiples!).

who

# A tibble: 7,240 × 60
   country  iso2  iso3   year new_sp_m014 new_sp_m1524 new_sp_m2534 new_sp_m3544
   <chr>    <chr> <chr> <dbl>       <dbl>        <dbl>        <dbl>        <dbl>
 1 Afghani… AF    AFG    1980          NA           NA           NA           NA
 2 Afghani… AF    AFG    1981          NA           NA           NA           NA
 3 Afghani… AF    AFG    1982          NA           NA           NA           NA
 4 Afghani… AF    AFG    1983          NA           NA           NA           NA
 5 Afghani… AF    AFG    1984          NA           NA           NA           NA
 6 Afghani… AF    AFG    1985          NA           NA           NA           NA
 7 Afghani… AF    AFG    1986          NA           NA           NA           NA
 8 Afghani… AF    AFG    1987          NA           NA           NA           NA
 9 Afghani… AF    AFG    1988          NA           NA           NA           NA
10 Afghani… AF    AFG    1989          NA           NA           NA           NA
# ℹ 7,230 more rows
# ℹ 52 more variables: new_sp_m4554 <dbl>, new_sp_m5564 <dbl>,
#   new_sp_m65 <dbl>, new_sp_f014 <dbl>, new_sp_f1524 <dbl>,
#   new_sp_f2534 <dbl>, new_sp_f3544 <dbl>, new_sp_f4554 <dbl>,
#   new_sp_f5564 <dbl>, new_sp_f65 <dbl>, new_sn_m014 <dbl>,
#   new_sn_m1524 <dbl>, new_sn_m2534 <dbl>, new_sn_m3544 <dbl>,
#   new_sn_m4554 <dbl>, new_sn_m5564 <dbl>, new_sn_m65 <dbl>, …
…
Remaining numbers -> Age group. E.g., 3544 should be interpreted as 35 - 44 years old.

Our first step is to pivot_longer. There is quite a bit of information implicitly stored in the column names, and we want to make those variables explicitly available for visual encoding.

who_longer <- who %>% 
  pivot_longer(
    cols = new_sp_m014:newrel_f65,  # notice we can refer to groups of columns without naming each one
    names_to = "key", 
    values_to = "cases", 
    values_drop_na = TRUE # if a cell is empty, we do not keep it in the tidy version
  )

who_longer

# A tibble: 76,046 × 6
   country     iso2  iso3   year key          cases
   <chr>       <chr> <chr> <dbl> <chr>        <dbl>
 1 Afghanistan AF    AFG    1997 new_sp_m014      0
 2 Afghanistan AF    AFG    1997 new_sp_m1524    10
 3 Afghanistan AF    AFG    1997 new_sp_m2534     6
 4 Afghanistan AF    AFG    1997 new_sp_m3544     3
 5 Afghanistan AF    AFG    1997 new_sp_m4554     5
 6 Afghanistan AF    AFG    1997 new_sp_m5564     2
 7 Afghanistan AF    AFG    1997 new_sp_m65       0
 8 Afghanistan AF    AFG    1997 new_sp_f014      5
 9 Afghanistan AF    AFG    1997 new_sp_f1524    38
10 Afghanistan AF    AFG    1997 new_sp_f2534    36
# ℹ 76,036 more rows

The new column key contains several variables at once. We can separate it into gender and age group.

who_separate <- who_longer %>% 
  mutate(key = str_replace(key, "newrel", "new_rel")) %>%
  separate(key, c("new", "type", "sexage"), sep = "_") %>%
  separate(sexage, c("sex", "age"), sep = 1)

who_separate

# A tibble: 76,046 × 9
   country     iso2  iso3   year new   type  sex   age   cases
   <chr>       <chr> <chr> <dbl> <chr> <chr> <chr> <chr> <dbl>
 1 Afghanistan AF    AFG    1997 new   sp    m     014       0
 2 Afghanistan AF    AFG    1997 new   sp    m     1524     10
 3 Afghanistan AF    AFG    1997 new   sp    m     2534      6
 4 Afghanistan AF    AFG    1997 new   sp    m     3544      3
 5 Afghanistan AF    AFG    1997 new   sp    m     4554      5
 6 Afghanistan AF    AFG    1997 new   sp    m     5564      2
 7 Afghanistan AF    AFG    1997 new   sp    m     65        0
 8 Afghanistan AF    AFG    1997 new   sp    f     014       5
 9 Afghanistan AF    AFG    1997 new   sp    f     1524     38
10 Afghanistan AF    AFG    1997 new   sp    f     2534     36
# ℹ 76,036 more rows

While we have performed each step one at a time, it’s possible to chain them into a single block of code. This is good practice, because it avoids having to define intermediate variables that are only ever used once. This is also typically more concise.

who %>%
  pivot_longer(
    cols = new_sp_m014:newrel_f65, 
    names_to = "key", 
    values_to = "cases", 
    values_drop_na = TRUE # if a cell is empty, we do not keep it in the tidy version
  ) %>%
  mutate(key = str_replace(key, "newrel", "new_rel")) %>%
  separate(key, c("new", "type", "sexage"), sep = "_") %>%
  separate(sexage, c("sex", "age"), sep = 1)

# A tibble: 76,046 × 9
   country     iso2  iso3   year new   type  sex   age   cases
   <chr>       <chr> <chr> <dbl> <chr> <chr> <chr> <chr> <dbl>
 1 Afghanistan AF    AFG    1997 new   sp    m     014       0
 2 Afghanistan AF    AFG    1997 new   sp    m     1524     10
 3 Afghanistan AF    AFG    1997 new   sp    m     2534      6
 4 Afghanistan AF    AFG    1997 new   sp    m     3544      3
 5 Afghanistan AF    AFG    1997 new   sp    m     4554      5
 6 Afghanistan AF    AFG    1997 new   sp    m     5564      2
 7 Afghanistan AF    AFG    1997 new   sp    m     65        0
 8 Afghanistan AF    AFG    1997 new   sp    f     014       5
 9 Afghanistan AF    AFG    1997 new   sp    f     1524     38
10 Afghanistan AF    AFG    1997 new   sp    f     2534     36
# ℹ 76,036 more rows
…
