STAT 436 Notes - Collections of Time Series
…
Computing these kinds of summary statistics by hand would be tedious. Fortunately, the feasts package makes it easy to extract a variety of statistics for tsibble objects.

tourism_features <- tourism %>%
  features(Trips, feature_set(pkgs = "feasts"))

tourism_features

# A tibble: 304 × 52
   Region         State      Purpose key   trend_strength seasonal_strength_year
   <chr>          <chr>      <chr>   <chr>          <dbl>                  <dbl>
 1 Adelaide       South Aus… Busine… Adel…          0.464                  0.407
 2 Adelaide       South Aus… Holiday Adel…          0.554                  0.619
 3 Adelaide       South Aus… Other   Adel…          0.746                  0.202
 4 Adelaide       South Aus… Visiti… Adel…          0.435                  0.452
 5 Adelaide Hills South Aus… Busine… Adel…          0.464                  0.179
 6 Adelaide Hills South Aus… Holiday Adel…          0.528                  0.296
 7 Adelaide Hills South Aus… Other   Adel…          0.593                  0.404
 8 Adelaide Hills South Aus… Visiti… Adel…          0.488                  0.254
 9 Alice Springs  Northern … Busine… Alic…          0.534                  0.251
10 Alice Springs  Northern … Holiday Alic…          0.381                  0.832
# ℹ 294 more rows
# ℹ 46 more variables: seasonal_peak_year <dbl>, seasonal_trough_year <dbl>,
#   spikiness <dbl>, linearity <dbl>, curvature <dbl>, stl_e_acf1 <dbl>,
#   stl_e_acf10 <dbl>, acf1 <dbl>, acf10 <dbl>, diff1_acf1 <dbl>,
#   diff1_acf10 <dbl>, diff2_acf1 <dbl>, diff2_acf10 <dbl>, season_acf1 <dbl>,
#   pacf5 <dbl>, diff1_pacf5 <dbl>, diff2_pacf5 <dbl>, season_pacf <dbl>,
#   zero_run_mean <dbl>, nonzero_squared_cv <dbl>, zero_start_prop <dbl>, …
…
