STAT 436 Notes - Fitting Topic Models
…
There are several packages in R that can be used to fit topic models. We will use LDA as implemented in the topicmodels package, which expects input to be structured as a DocumentTermMatrix, a special type of matrix that stores the counts of words (columns) across documents (rows). In practice, most of the effort required to fit a topic model goes into transforming the raw data into a suitable DocumentTermMatrix.

To illustrate this process, let’s consider the “Great Library Heist” example from the reading. We imagine that a thief has taken four books — Great Expectations, Twenty Thousand Leagues Under The Sea, War of the Worlds, and Pride & Prejudice — and torn all the chapters out. We are left with pieces of isolated pieces of text and have to determine from which book they are from. The block below downloads all the books into an R object.

titles <- c("Twenty Thousand Leagues under the Sea", 
            "The War of the Worlds",
            "Pride and Prejudice", 
            "Great Expectations")
books <- gutenberg_works(title %in% titles) %>%
  gutenberg_download(meta_fields = "title")
books

# A tibble: 53,718 × 3
   gutenberg_id text                    title                
          <int> <chr>                   <chr>                
 1           36 "cover "                The War of the Worlds
 2           36 ""                      The War of the Worlds
 3           36 ""                      The War of the Worlds
 4           36 ""                      The War of the Worlds
 5           36 ""                      The War of the Worlds
 6           36 "The War of the Worlds" The War of the Worlds
 7           36 ""                      The War of the Worlds
 8           36 "by H. G. Wells"        The War of the Worlds
 9           36 ""                      The War of the Worlds
10           36 ""                      The War of the Worlds
# ℹ 53,708 more rows
…
As it is, the text data are long character strings, giving actual text from the novels. To fit LDA, we only need counts of each word within each chapter – the algorithm throws away information related to word order. To derive word counts, we first split the raw text into separate words using the unest_tokens function in the tidytext package. Then, we can count the number of times each word appeared in each document using count, a shortcut for the usual group_by and summarize(n = n()) pattern.

word_counts <- by_chapter %>%
  unnest_tokens(word, text) %>%
  anti_join(stop_words) %>%
  count(document, word) # shortcut for group_by(document, word) %>% summarise(n = n())

word_counts

# A tibble: 101,271 × 3
   document               word             n
   <chr>                  <chr>        <int>
 1 Great Expectations_0   1867             1
 2 Great Expectations_0   charles          1
 3 Great Expectations_0   contents         1
 4 Great Expectations_0   dickens          1
 5 Great Expectations_0   edition          1
 6 Great Expectations_0   expectations     1
 7 Great Expectations_0   illustration     1
 8 Great Expectations_100 age              1
 9 Great Expectations_100 arose            1
10 Great Expectations_100 barnard’s        1
# ℹ 101,261 more rows
…
A LDA_VEM topic model with 4 topics.

There are two types of outputs produced by the LDA model: the topic word distributions (for each topic, which words are common?) and the document-topic memberships (from which topics does a document come from?). For visualization, it will be easiest to extract these parameters using the tidy function, specifying whether we want the topics (beta) or memberships (gamma).

topics <- tidy(chapters_lda, matrix = "beta")
memberships <- tidy(chapters_lda, matrix = "gamma")

This tidy approach is preferable to extracting the parameters directly from the fitted model (e.g., using chapters_lda@gamma) because it ensures the output is a tidy data.frame, rather than a matrix. Tidy data.frames are easier to visualize using ggplot2.

# highest weight words per topic
topics %>%
  arrange(topic, -beta)

# A tibble: 74,960 × 3
   topic term          beta
   <int> <chr>        <dbl>
 1     1 captain    0.00990
 2     1 _nautilus_ 0.00817
 3     1 sea        0.00587
 4     1 nemo       0.00562
 5     1 ned        0.00514
 6     1 water      0.00504
 7     1 conseil    0.00440
 8     1 time       0.00418
 9     1 land       0.00389
10     1 day        0.00343
# ℹ 74,950 more rows

# topic memberships per document
memberships %>%
  arrange(document, topic)

# A tibble: 780 × 3
   document               topic     gamma
   <chr>                  <int>     <dbl>
 1 Great Expectations_0       1 0.515    
 2 Great Expectations_0       2 0.479    
 3 Great Expectations_0       3 0.00316  
 4 Great Expectations_0       4 0.00316  
 5 Great Expectations_100     1 0.000476 
 6 Great Expectations_100     2 0.000476 
 7 Great Expectations_100     3 0.999    
 8 Great Expectations_100     4 0.000476 
 9 Great Expectations_101     1 0.0000158
10 Great Expectations_101     2 0.0000158
# ℹ 770 more rows
