STAT 436 Notes - Topic Modeling Case Study
…
We have used text data analysis to motivate and illustrate the use of topic models. However, these models can be used whenever we have high-dimensional count data1. To illustrate this broad applicability, this lecture will consider an example from gene expression analysis.

The dataset we consider comes from the GTEX consortium. A variety of tissue samples have been subject to RNA-seq analysis, which measures how much of each type of gene is expressed within each sample. Intuitively, we relate,

Documents → Tissue samples

Words → Genes

Word Counts → Gene expression levels

x <- read_csv("https://uwmadison.box.com/shared/static/fd437om519i5mrnur14xy6dq3ls0yqt2.csv")
x

# A tibble: 2,000,000 × 6
   sample                       gene      tissue tissue_detail Description value
   <chr>                        <chr>     <chr>  <chr>         <chr>       <dbl>
 1 GTEX-NFK9-0926-SM-2HMJU      ENSG0000… Heart  Heart - Left… FGR           368
 2 GTEX-OXRO-0011-R10A-SM-2I5EH ENSG0000… Brain  Brain - Fron… FGR           593
 3 GTEX-QLQ7-0526-SM-2I5G3      ENSG0000… Heart  Heart - Left… FGR           773
 4 GTEX-POMQ-0326-SM-2I5FO      ENSG0000… Heart  Heart - Left… FGR           330
 5 GTEX-QESD-0526-SM-2I5G5      ENSG0000… Heart  Heart - Left… FGR           357
 6 GTEX-OHPN-0011-R4A-SM-2I5FD  ENSG0000… Brain  Brain - Amyg… FGR           571
 7 GTEX-OHPK-0326-SM-2HMJO      ENSG0000… Heart  Heart - Left… FGR           391
 8 GTEX-OIZG-1126-SM-2HMIU      ENSG0000… Heart  Heart - Left… FGR           425
 9 GTEX-O5YW-0326-SM-2I5EI      ENSG0000… Heart  Heart - Left… FGR           172
10 GTEX-REY6-1026-SM-2TF4Y      ENSG0000… Heart  Heart - Left… FGR           875
# ℹ 1,999,990 more rows
…
