STAT 436 Notes - K-means
…
Next, we run kmeans on this dataset. I’ve used the dplyr pipe notation to run kmeans on the data above with “title” removed. augment is a function from the tidymodels package that adds the cluster labels identified by kmeans to the rows in the original dataset.

kclust <- movie_mat %>%
  select(-title) %>%
  kmeans(centers = 10)

movie_mat <- augment(kclust, movie_mat) # creates column ".cluster" with cluster label
kclust <- tidy(kclust)

movie_mat %>%
  select(title, .cluster) %>%
  arrange(.cluster)

# A tibble: 50 × 2
   title                           .cluster
   <chr>                           <fct>   
 1 Pulp Fiction                    1       
 2 Silence of the Lambs, The       1       
 3 Shawshank Redemption, The       1       
 4 Schindler's List                2       
 5 Lion King, The                  3       
 6 Mask, The                       3       
 7 Aladdin                         3       
 8 Beauty and the Beast            3       
 9 Dumb & Dumber (Dumb and Dumber) 3       
10 Ace Ventura: Pet Detective      3       
# ℹ 40 more rows
…
